%YAML 1.1
%TAG !u! tag:unity3d.com,2011:
--- !u!1045 &1
EditorBuildSettings:
  m_ObjectHideFlags: 0
  serializedVersion: 2
  m_Scenes:
  - enabled: 1
    path: Assets/Scenes/acilis.unity
    guid: 6c70868f150750b48aacba23b6e60be8
  - enabled: 1
    path: Assets/Scenes/loading.unity
    guid: 0a459fa909d9f4a4d86d2f95c3d1eaca
  - enabled: 1
    path: Assets/Scenes/MainMenu.unity
    guid: d074cefcbc9f10e4780e9f1f53998a5d
  - enabled: 1
    path: Assets/Scenes/LobbyFutbol.unity
    guid: f97fa78ce7a29834d910c8a6921775d3
  - enabled: 1
    path: Assets/Scenes/Lobby.unity
    guid: 88d73eda8f6a12b4a9d3d414b740bf8a
  - enabled: 1
    path: Assets/Scenes/GameScene.unity
    guid: 365150f7bed45fa45af48cc9ecae7ed2
  - enabled: 1
    path: Assets/Scenes/FutbolScene.unity
    guid: aca9c9c4e1ff2ba4b840e5fb323a819c
  - enabled: 1
    path: Assets/Scenes/Shop.unity
    guid: 072e9aa3f48c75546abd88f517a3966d
  - enabled: 1
    path: Assets/Scenes/single.unity
    guid: bc56a7a8d37f0164d90a4f3122e8735c
  - enabled: 1
    path: Assets/Scenes/LobbyFutbolSingle.unity
    guid: 01e10e4deca8bac4a9c1a9c49dbc630b
  - enabled: 1
    path: Assets/Scenes/GameSceneRoad.unity
    guid: ea31ded4b59ba5a41aba8e0e4ce05352
  - enabled: 1
    path: Assets/Scenes/Lobby2v2.unity
    guid: db0b6a157d0ba1c428d9562096793e87
  - enabled: 1
    path: Assets/Scenes/GameScenePlus.unity
    guid: d077fcd2627bf1a4888786952fb1fd2a
  m_configObjects: {}
